18890,Patrick Mahomes
19801,Josh Allen
21831,Jalen Hurts
21693,Joe Burrow
19562,Austin Ekeler
18877,Christian McCaffrey
21685,Justin Jefferson
14895,Geno Smith
20824,Josh Jacobs O
22492,Justin Fields
22490,Trevor Lawrence
14252,Kirk Cousins
20841,Daniel Jones
18082,Tyreek Hill
17959,Derrick Henry
16470,Davante Adams
17922,Jared Goff
21681,Justin Herbert
4314,Tom Brady
19798,Nick Chubb
16906,Stefon Diggs
15048,Travis Kelce
21042,A.J. Brown
19766,Saquon Barkley
21679,CeeDee Lamb
2593,Aaron Rodgers
19781,Lamar Jackson
21677,Tua Tagovailoa
20912,Tony Pollard
14536,Russell Wilson
22598,Jaylen Waddle
18995,Jamaal Williams
19045,Aaron Jones
16311,Derek Carr
18872,Dalvin Cook
22546,Rhamondre Stevenson
22587,Amon-Ra St. Brown
18858,Joe Mixon
21687,DeVonta Smith
16765,Amari Cooper
20933,Miles Sanders
21768,Najee Harris
20889,Kyler Murray PUP
19815,Christian Kirk
22564,Ja'Marr Chase
18055,Dak Prescott
16763,Marcus Mariota
16830,Tyler Lockett
20873,Terry McLaurin
18803,Leonard Fournette
23214,Kenneth Walker III
21747,Brandon Aiyuk
21696,Travis Etienne Jr.
16597,Mike Evans
21690,Tee Higgins
18878,Alvin Kamara
20875,DK Metcalf
22505,Davis Mills
17923,Ezekiel Elliott
18983,James Conner
12841,Andy Dalton
23122,Garrett Wilson
20805,T.J. Hockenson
18880,Chris Godwin
21692,Jerry Jeudy
19063,George Kittle
22496,Mac Jones
18018,Jacoby Brissett
16510,Jerick McKinnon
19844,DJ Moore
21684,D'Andre Swift
21744,Michael Pittman Jr.
16041,Jimmy Garoppolo
18882,Cooper Kupp
22565,Chris Olave
13799,Ryan Tannehill
20882,David Montgomery
20941,Devin Singletary
18926,Zay Jones
732,Matt Ryan
19803,Mark Andrews
21802,AJ Dillon
17217,Raheem Mostert
23250,Tyler Allgeier
23223,Dameon Pierce
22501,Kenny Pickett
21735,Gabe Davis
20360,Jeff Wilson Jr.
20876,Jakobi Meyers
18883,JuJu Smith-Schuster
18914,Mike Williams
15534,Adam Thielen
20145,Allen Lazard
18928,Curtis Samuel
23395,Christian Watson
21861,Antonio Gibson
23151,Drake London
19238,Taysom Hill
15071,Latavius Murray
23153,George Pickens
20932,Deebo Samuel
18912,Evan Engram
15150,Cordarrelle Patterson
17986,Tyler Boyd
21077,Diontae Johnson
21688,Cam Akers
22613,Joshua Palmer
21682,Jonathan Taylor PUP
15076,Keenan Allen
21754,Donovan Peoples-Jones
18957,D'Onta Foreman
23371,Isiah Pacheco
19800,Courtland Sutton
19023,Mack Hollins
21714,K.J. Osborn
18993,Samaje Perine
21045,Marquise Brown
21772,Cole Kmet
19790,Baker Mayfield
14986,DeAndre Hopkins
21005,Parris Campbell
16568,Brandin Cooks
22507,Pat Freiermuth
18032,Tyler Higbee
17179,Taylor Heinicke
19920,Dalton Schultz
23217,Rachaad White
21738,Juwan Johnson
19863,Dallas Goedert
22563,Khalil Herbert
23155,Jahan Dotson
18876,David Njoku
17920,Carson Wentz
20850,Dawson Knox
18935,Gerald Everett
18944,Kareem Hunt
9038,Matthew Stafford
23190,Brian Robinson
23241,Brock Purdy
22526,Breece Hall PUP
22553,Michael Carter
20943,Darius Slayton
20077,Richie James
19988,Tyler Conklin
19976,Marquez Valdes-Scantling
19043,Isaiah McKenzie
22495,Zach Wilson
20006,Russell Gage
19903,Jordan Akins
20753,Noah Fant
18003,Kenyan Drake
23247,James Cook
13870,Marvin Jones Jr.
19080,Noah Brown
14856,Zach Ertz PUP
23232,Alec Pierce
21721,Devin Duvernay
18030,Chris Moore
21142,Olamide Zaccheaus
21769,Clyde Edwards-Helaire
17218,DeAndre Carter
14871,Robert Woods
16775,DeVante Parker
21071,Greg Dortch
18422,Kalif Raymond
23729,Rashid Shaheed
19812,Sam Darnold
19867,Michael Gallup
18857,Deshaun Watson
19491,Robert Tonyan
19017,Josh Reynolds
17975,Hunter Henry
19816,DJ Chark Jr.
21970,James Robinson
20790,Damien Harris
19853,Mike Gesicki
21752,Chase Claypool
21760,Isaiah Hodgins
18879,Corey Davis
21961,Darnell Mooney
20788,Mecole Hardman Jr.
23489,Chigoziem Okonkwo
20868,Alexander Mattison
21691,Chuba Hubbard
23167,Romeo Doubs
18047,Demarcus Robinson
19843,Hayden Hurst
23479,Jaylen Warren
21756,Nico Collins
21674,J.K. Dobbins PUP
23119,Treylon Burks
21773,Eno Benjamin
17963,Austin Hooper
14865,Marquise Goodwin
22562,Kenneth Gainwell
16776,Melvin Gordon III
18811,Mitch Trubisky
23256,Isaiah Likely
23134,Cade Otton
16964,Darren Waller
19318,Kendrick Bourne
21734,Nick Westbrook-Ikhine
19950,Will Dissly
23310,Greg Dulcich
22592,Elijah Moore
22674,Deon Jackson
22685,Terrace Marshall Jr.
20081,Trent Sherfield
20884,Foster Moreau
16263,Allen Robinson II
21957,Quez Watkins
22626,Rondale Moore
21739,Van Jefferson
20566,Dontrell Hilliard
19919,Chase Edmonds
21717,Jauan Jennings
20798,Darrell Henderson Jr.
22590,Ben Skowronek
13227,Randall Cobb
23490,Jelani Woods
22508,Kyle Pitts
20924,Hunter Renfrow
21765,JaMycal Hasty
23485,Daniel Bellinger
16781,Nelson Agholor
20239,Gus Edwards
21697,Laviska Shenault Jr.
21784,Zack Moss
14917,Rex Burkhead
19044,Jamal Agnew
13291,Julio Jones
21776,Joshua Kelley
16656,Logan Thomas
21807,Colby Parkinson
19461,Cooper Rush
19972,Mike White
21785,Noah Gray
21263,Trenton Irwin
19854,Dante Pettis
23469,Tyquan Thornton
23010,Brock Wright
19912,Nyheim Hines
22602,Tutu Atwell
20398,Equanimeous St. Brown
23847,Zonovan Knight
19961,Ray-Ray McCloud III
19922,Justin Watson
22609,Shi Smith
19799,Rashaad Penny
21810,Tyler Huntley
19319,Matt Breida
12845,A.J. Green
22614,Kadarius Toney
20038,Braxton Berrios
611,Joe Flacco
16020,Jarvis Landry
16903,MyCole Pruitt
23251,Trey McBride
21783,Harrison Bryant
22623,Rashod Bateman PUP
16917,C.J. Uzomah
22823,Kylen Granson
17141,Damiere Byrd
20064,Justin Jackson
18900,Mo Alie-Cox
22213,Kendall Hinton
14901,Kyle Juszczyk
16762,Jameis Winston
21849,Caleb Huntley
20039,Boston Scott
19897,Tre'Quan Smith
17960,Michael Thomas
22662,Tommy Tremble
20949,Irv Smith Jr.
20954,Jarrett Stidham
18464,J.D. McKissic
18187,Robbie Chosen
22535,Elijah Mitchell
13337,Mark Ingram II
16790,Phillip Dorsett
16815,Ameer Abdullah
23170,Wan'Dale Robinson PUP
19191,P.J. Walker
23267,Bailey Zappe
23138,Jake Ferguson
22502,Desmond Ridder
19626,Dare Ogunbowale
16003,Sammy Watkins
18990,Jonnu Smith
16497,Teddy Bridgewater
23298,Raheem Blackshear
21804,DeeJay Dallas
20880,Gardner Minshew
20837,Ty Johnson
20802,Justice Hill
21786,Adam Trautman
21815,Sam Ehlinger
20487,Brandon Powell
23084,Shane Zylstra
20810,Travis Homer
